<svg width="50" height="50" viewBox="0 0 50 50" fill="none" xmlns="http://www.w3.org/2000/svg">
<path d="M24.1432 32.8504L14.3269 23.0408C13.8507 22.5646 13.8507 21.8027 14.3269 21.3266L15.4697 20.1837C15.9391 19.7143 16.7078 19.7075 17.184 20.1837L25.0003 27.9592L32.8167 20.1837C33.2929 19.7143 34.0548 19.7143 34.5309 20.1837L35.6738 21.3266C36.15 21.8027 36.15 22.5646 35.6738 23.0408L25.8575 32.8504C25.3813 33.3265 24.6126 33.3265 24.1432 32.8504Z" fill="white"/>
<path d="M25 50C21.6259 50 18.3537 49.3401 15.2721 48.034C12.2925 46.7755 9.61905 44.9728 7.32653 42.6803C5.03401 40.3878 3.23129 37.7143 1.97279 34.7347C0.659864 31.6463 0 28.3742 0 25C0 21.6259 0.659864 18.3537 1.96599 15.2721C3.22449 12.2925 5.02721 9.61905 7.31973 7.32653C9.61225 5.03401 12.2857 3.23129 15.2653 1.97279C18.3537 0.659864 21.6259 0 25 0C28.3742 0 31.6463 0.659864 34.7279 1.96599C37.7075 3.22449 40.381 5.02721 42.6735 7.31973C44.966 9.61225 46.7687 12.2857 48.0272 15.2653C49.3333 18.3469 49.9932 21.6259 49.9932 24.9932C49.9932 28.3605 49.3333 31.6395 48.0272 34.7211C46.7687 37.7007 44.966 40.3742 42.6735 42.6667C40.381 44.9592 37.7075 46.7619 34.7279 48.0204C31.6463 49.3401 28.3742 50 25 50ZM25 3.40136C19.2313 3.40136 13.8095 5.64626 9.72789 9.72789C5.64626 13.8095 3.40136 19.2313 3.40136 25C3.40136 30.7687 5.64626 36.1905 9.72789 40.2721C13.8095 44.3537 19.2313 46.5986 25 46.5986C30.7687 46.5986 36.1905 44.3537 40.2721 40.2721C44.3537 36.1905 46.5986 30.7687 46.5986 25C46.5986 19.2313 44.3469 13.8095 40.2721 9.72789C36.1973 5.64626 30.7687 3.40136 25 3.40136Z" fill="white"/>
</svg>
